^D:\LABA\PROGRAMMING\LABA 7\LABA 7\X64\DEBUG\LABA 7.OBJ
D:\WINDOWS KITS\10\LIB\10.0.18362.0\UM\X64\KERNEL32.LIB
D:\WINDOWS KITS\10\LIB\10.0.18362.0\UM\X64\USER32.LIB
D:\WINDOWS KITS\10\LIB\10.0.18362.0\UM\X64\GDI32.LIB
D:\WINDOWS KITS\10\LIB\10.0.18362.0\UM\X64\WINSPOOL.LIB
D:\WINDOWS KITS\10\LIB\10.0.18362.0\UM\X64\COMDLG32.LIB
D:\WINDOWS KITS\10\LIB\10.0.18362.0\UM\X64\ADVAPI32.LIB
D:\WINDOWS KITS\10\LIB\10.0.18362.0\UM\X64\SHELL32.LIB
D:\WINDOWS KITS\10\LIB\10.0.18362.0\UM\X64\OLE32.LIB
D:\WINDOWS KITS\10\LIB\10.0.18362.0\UM\X64\OLEAUT32.LIB
D:\WINDOWS KITS\10\LIB\10.0.18362.0\UM\X64\UUID.LIB
D:\WINDOWS KITS\10\LIB\10.0.18362.0\UM\X64\ODBC32.LIB
D:\WINDOWS KITS\10\LIB\10.0.18362.0\UM\X64\ODBCCP32.LIB
D:\LABA\PROGRAMMING\LABA 7\LABA 7\X64\DEBUG\LABA 7.OBJ
C:\WINDOWS\SYSTEM32\TZRES.DLL
C:\WINDOWS\GLOBALIZATION\SORTING\SORTDEFAULT.NLS
C:\PROGRAM FILES (X86)\MICROSOFT VISUAL STUDIO\2019\COMMUNITY\VC\TOOLS\MSVC\14.23.28105\LIB\X64\MSVCRTD.LIB
C:\PROGRAM FILES (X86)\MICROSOFT VISUAL STUDIO\2019\COMMUNITY\VC\TOOLS\MSVC\14.23.28105\LIB\X64\OLDNAMES.LIB
C:\PROGRAM FILES (X86)\MICROSOFT VISUAL STUDIO\2019\COMMUNITY\VC\TOOLS\MSVC\14.23.28105\LIB\X64\VCRUNTIMED.LIB
D:\WINDOWS KITS\10\LIB\10.0.18362.0\UCRT\X64\UCRTD.LIB
